<?xml version="1.0" encoding="utf-8"?>
<!-- Generator: Adobe Illustrator 21.0.0, SVG Export Plug-In . SVG Version: 6.00 Build 0)  -->
<svg version="1.1" id="Layer_1" xmlns="http://www.w3.org/2000/svg" xmlns:xlink="http://www.w3.org/1999/xlink" x="0px" y="0px"
	 viewBox="0 0 6 15" style="enable-background:new 0 0 6 15;" xml:space="preserve">
<style type="text/css">
	.st0{fill:url(#SVGID_1_);}
</style>
<g>
	
		<linearGradient id="SVGID_1_" gradientUnits="userSpaceOnUse" x1="10.5248" y1="7.7905" x2="-4.0732" y2="7.7905" gradientTransform="matrix(6.123234e-17 -1 1 6.123234e-17 -4.7905 10.7258)">
		<stop  offset="0" style="stop-color:#0083B5"/>
		<stop  offset="1" style="stop-color:#00ADEE"/>
	</linearGradient>
	<path class="st0" d="M6,7.4c0,0.1,0,0.3-0.1,0.4l-4.5,6.7c-0.2,0.3-0.7,0.4-1,0.2c-0.3-0.2-0.4-0.7-0.2-1l4.2-6.3l-4.2-6
		C-0.1,1,0,0.6,0.4,0.3c0.3-0.2,0.8-0.2,1,0.2l4.5,6.4C6,7.1,6,7.2,6,7.4z"/>
</g>
</svg>
