<?xml version="1.0" encoding="utf-8"?>
<!-- Generator: Adobe Illustrator 22.0.1, SVG Export Plug-In . SVG Version: 6.00 Build 0)  -->
<svg version="1.1" id="Layer_1" xmlns="http://www.w3.org/2000/svg" xmlns:xlink="http://www.w3.org/1999/xlink" x="0px" y="0px"
	 viewBox="0 0 112 90" style="enable-background:new 0 0 112 90;" xml:space="preserve">
<style type="text/css">
	.st0{fill:url(#SVGID_1_);}
</style>
<linearGradient id="SVGID_1_" gradientUnits="userSpaceOnUse" x1="111.1" y1="45" x2="0.9" y2="45">
	<stop  offset="0" style="stop-color:#0083B5"/>
	<stop  offset="1" style="stop-color:#00ADEE"/>
</linearGradient>
<path class="st0" d="M85.6,60.5c-1.1,0-2,0.9-2,2v21c0,1.1-0.9,2-2,2H26.8c-1.1,0-2-0.9-2-2s-0.9-2-2-2s-2,0.9-2,2c0,3.3,2.7,6,6,6
	h54.8c3.3,0,6-2.7,6-6v-21C87.6,61.4,86.7,60.5,85.6,60.5z M22.8,34.5c1.1,0,2-0.9,2-2v-26c0-1.1,0.9-2,2-2h54.8c1.1,0,2,0.9,2,2v6
	c0,1.1,0.9,2,2,2s2-0.9,2-2v-6c0-3.3-2.7-6-6-6H26.8c-3.3,0-6,2.7-6,6v26C20.8,33.6,21.7,34.5,22.8,34.5z M77.6,12.5
	c0-1.1-0.9-2-2-2H32.8c-1.1,0-2,0.9-2,2s0.9,2,2,2h42.8C76.7,14.5,77.6,13.6,77.6,12.5z M61.6,20.5H32.8c-1.1,0-2,0.9-2,2s0.9,2,2,2
	h28.8c1.1,0,2-0.9,2-2S62.7,20.5,61.6,20.5z M61.6,30.5H32.8c-1.1,0-2,0.9-2,2c0,1.1,0.9,2,2,2h28.8c1.1,0,2-0.9,2-2
	S62.7,30.5,61.6,30.5z M61.6,40.5H37.8c-1.1,0-2,0.9-2,2s0.9,2,2,2h23.8c1.1,0,2-0.9,2-2S62.7,40.5,61.6,40.5z M61.6,50.5H41.8
	c-1.1,0-2,0.9-2,2s0.9,2,2,2h19.8c1.1,0,2-0.9,2-2S62.7,50.5,61.6,50.5z M75.6,60.5H41.8c-1.1,0-2,0.9-2,2s0.9,2,2,2h33.8
	c1.1,0,2-0.9,2-2S76.7,60.5,75.6,60.5z M37.8,74.5h37.8c1.1,0,2-0.9,2-2s-0.9-2-2-2H37.8c-1.1,0-2,0.9-2,2S36.7,74.5,37.8,74.5z
	 M35.1,57.6c0-9.4-7.7-17.1-17.1-17.1S0.9,48.2,0.9,57.6S8.5,74.7,18,74.7S35.1,67.1,35.1,57.6z M18,70.7c-7.2,0-13.1-5.9-13.1-13.1
	S10.7,44.5,18,44.5s13.1,5.9,13.1,13.1S25.2,70.7,18,70.7z M27.2,55.9l-12.2-7c-0.6-0.4-1.4-0.4-2,0s-1,1-1,1.7v14.1
	c0,0.7,0.4,1.4,1,1.7c0.3,0.2,0.7,0.3,1,0.3s0.7-0.1,1-0.3l12.2-7c0.6-0.4,1-1,1-1.7S27.8,56.2,27.2,55.9z M16,61.2V54l6.2,3.6
	L16,61.2z M105.1,20.5H75.6c-3.3,0-6,2.7-6,6v22c0,3.3,2.7,6,6,6h29.5c3.3,0,6-2.7,6-6v-22C111.1,23.2,108.5,20.5,105.1,20.5z
	 M75.6,24.5h29.5c1.1,0,2,0.9,2,2v15l-1.7-2.1c-0.4-0.5-0.9-0.7-1.5-0.7l0,0c-0.6,0-1.2,0.3-1.5,0.7l-2.5,3.1l-7.8-10
	c-0.4-0.5-0.9-0.8-1.5-0.8s-1.2,0.2-1.6,0.7l-6,6.9l-2.2-2.2c-0.8-0.8-2-0.8-2.8-0.1l-4.3,4V26.5C73.6,25.4,74.5,24.5,75.6,24.5z
	 M105.1,50.5H75.6c-1.1,0-2-0.9-2-2v-2l5.6-5.2l2.4,2.4c0.4,0.4,0.9,0.6,1.5,0.6s1.1-0.3,1.4-0.7l5.8-6.7l7.9,10
	c0.4,0.5,0.9,0.8,1.5,0.8s1.2-0.3,1.6-0.7l2.6-3.1l3.3,4v0.7C107.1,49.6,106.2,50.5,105.1,50.5z M100.9,34.3c1.9,0,3.5-1.6,3.5-3.5
	c0-1.9-1.6-3.5-3.5-3.5s-3.5,1.6-3.5,3.5C97.4,32.7,99,34.3,100.9,34.3z"/>
</svg>
