<?xml version="1.0" encoding="utf-8"?>
<!-- Generator: Adobe Illustrator 22.0.1, SVG Export Plug-In . SVG Version: 6.00 Build 0)  -->
<svg version="1.1" id="Layer_1" xmlns="http://www.w3.org/2000/svg" xmlns:xlink="http://www.w3.org/1999/xlink" x="0px" y="0px"
	 viewBox="0 0 122 90" style="enable-background:new 0 0 122 90;" xml:space="preserve">
<style type="text/css">
	.st0{fill:url(#SVGID_1_);}
</style>
<linearGradient id="SVGID_1_" gradientUnits="userSpaceOnUse" x1="121.4" y1="45" x2="0.6" y2="45">
	<stop  offset="0" style="stop-color:#0083B5"/>
	<stop  offset="1" style="stop-color:#00ADEE"/>
</linearGradient>
<path class="st0" d="M37.8,61H6.6c-3.3,0-6,2.7-6,6v16.5c0,3.3,2.7,6,6,6h31.2c3.3,0,6-2.7,6-6V67C43.8,63.7,41.1,61,37.8,61z
	 M39.8,83.5c0,1.1-0.9,2-2,2H6.6c-1.1,0-2-0.9-2-2V67c0-1.1,0.9-2,2-2h31.2c1.1,0,2,0.9,2,2V83.5z M58.1,21.8H16.9
	c-3.3,0-5.9,2.7-5.9,5.9v25c0,1.1,0.9,2,2,2s2-0.9,2-2v-25c0-1.1,0.9-1.9,1.9-1.9h41.2c1.1,0,1.9,0.9,1.9,1.9v55.9
	c0,1.1-0.9,1.9-1.9,1.9h-6.4c-1.1,0-2,0.9-2,2s0.9,2,2,2h6.4c3.3,0,5.9-2.7,5.9-5.9V27.7C64,24.5,61.4,21.8,58.1,21.8z M108.1,62.2
	H72.8c-1.1,0-2,0.9-2,2c0,1.1,0.9,2,2,2h35.3c3.3,0,5.9-2.7,5.9-5.9V14.2c0-3.3-2.7-5.9-5.9-5.9H37.6c-3.3,0-5.9,2.7-5.9,5.9
	c0,1.1,0.9,2,2,2s2-0.9,2-2s0.9-1.9,1.9-1.9h70.6c1.1,0,1.9,0.9,1.9,1.9v46.1C110,61.4,109.2,62.2,108.1,62.2z M115.5,0.5H30.2
	c-3.3,0-5.9,2.7-5.9,5.9V14c0,1.1,0.9,2,2,2s2-0.9,2-2V6.4c0-1.1,0.9-1.9,1.9-1.9h85.3c1.1,0,1.9,0.9,1.9,1.9v65.7
	c0,1.1-0.9,1.9-1.9,1.9H72.8c-1.1,0-2,0.9-2,2s0.9,2,2,2h9.8v5.6c0,0.7,0.1,1.3,0.3,1.9H72.8c-1.1,0-2,0.9-2,2s0.9,2,2,2h17.5
	c1.1,0,2-0.9,2-2s-0.9-2-2-2h-1.8c-1.1,0-1.9-0.9-1.9-1.9V78h28.9c3.3,0,5.9-2.7,5.9-5.9V6.4C121.4,3.2,118.7,0.5,115.5,0.5z"/>
</svg>
